ee 9f 91 28 ed f3 8d 82 8b b2 bc ed 5f e2 4d f9 
ac 92 26 80 22 20 97 61 f8 d8 ca 29 81 0d 2b 43 
26 34 fa 4a 25 42 ce 21 5b bc 06 cf 28 d2 96 d9 
cd c1 cc 41 b3 49 9c bf ab 35 8a 63 d7 12 a7 f3 
71 bb 57 a9 de 55 74 91 b8 d0 a6 8f 5a 40 59 0b 
86 84 0c b1 93 68 03 4a 62 ff c5 6d 8a 3c e7 e8 
07 91 4d 63 ef 5a 9a cf 86 8c 33 5b c7 29 50 e1 
5b 04 df 1c ce dc 19 95 f4 31 2c 41 af 93 16 49 
6c e9 99 df be 6d db 08 ab e3 26 c9 45 47 44 4d 
3a 20 c2 03 0a 93 dc 7c 88 85 cd 12 66 d6 76 c6 
f5 66 7c b5 69 3f 2b 9a 9d d8 fb cf e1 7a ac 31 
bd 84 61 e2 74 21 05 d6 1d 65 ef 8e 87 f4 46 09 
49 a6 88 75 a0 dd 78 f0 40 d7 91 cf 8f 40 5e c7 
50 48 d8 ed 1c 26 5a 60 38 33 dc a2 f5 d6 65 d9 
eb 22 33 31 5c a5 7f 9f f2 b7 75 33 e3 5f b6 82 
94 12 ff ba e1 47 19 0a 68 c6 2b f0 b3 df 2d 79 
bb e7 5e 8a 5e 6e 2b 40 56 0a a3 b7 18 f7 5e cb 
38 4c e7 c8 8d 80 9f d5 38 e0 3f 0a 0c b6 2a 61 
37 61 49 69 e9 fd 10 4a 03 fb 97 49 55 57 3f 35 
28 d3 f7 c7 c0 6e ef d1 00 13 aa 70 76 be 52 d5 
be 1b d6 83 4a f5 4e 6e ef 32 82 7e 28 fb e7 13 
2f 86 8a cf 9f 70 c4 ee b9 e0 2e 50 f4 e7 8a 5d 
98 37 02 c6 d4 3c a1 c6 3f ad f5 ce ca d9 05 63 
87 b5 8e 2d 7c d5 e1 f9 5a 77 6f 8f 17 a0 29 78 
69 f4 5c 5b 23 d5 eb 02 90 3c 75 1c 8f 7b a7 0e 
a0 3c b2 dc a3 a9 7c fd 27 c6 e6 3a 51 a1 df 0a 
f7 d2 98 b3 47 f2 e1 e6 66 fe 38 fc 74 96 91 f1 
18 c9 fe 92 26 1a a4 8a 83 70 4f 90 f0 ac ad 8a 
b8 24 24 db 6d 5b 79 6c 8f e8 f0 20 74 d0 8a cb 
60 e6 a0 af ea b8 d8 41 42 2a 90 f4 e7 fe 88 ae 
d1 07 4f 69 e5 2d 5a 72 91 ab 5e 07 b8 06 5d ce 
8f f9 f4 44 72 d9 f2 67 31 cf d0 a0 b5 74 a6 7f 
40 30 e7 6d b9 dc 1f e9 de cf 1d 72 65 81 3e bf 
c1 91 91 4a 0f b6 6d 1d a7 a8 2b 2a f8 73 9a 34 
7a 03 7b 0e af 2b ce 3a ae 61 30 92 c0 77 aa 11 
24 ba 7e e3 4b 0b b7 31 dd e7 6a 74 1e 62 f8 66 
93 41 ad f2 2e a2 3c 6f 6c cf f6 45 84 99 6f c2 
92 5a 7c de 4a 40 57 8f 08 f7 ef ab e5 9c f3 8d 
d4 1d 06 7a e8 29 61 4f fd 68 e7 cb a6 c9 a0 72 
4f 8a 64 08 ac 2c 95 df 35 fc bc 54 7f ba 91 49 
08 23 46 55 5c 22 27 cc 5a 50 7e 64 18 e5 16 de 
04 55 10 c4 16 d6 12 2a 02 9c de b6 76 88 42 66 
8d 66 9b 7d cf cf d8 8b 3e aa 6b 6c 6e 63 55 15 
4b a2 e8 ea ae 95 a8 e8 10 9c 78 06 cd b3 47 c2 
2f e5 98 07 93 02 7e 36 ec ca 55 d2 97 64 c4 55 
64 c6 41 ae 1b 57 72 3b 25 21 76 9c d6 f8 c7 c7 
c1 d5 8b 99 e6 dd b6 e3 f7 eb 01 a6 7d 84 e6 d1 
09 d6 3e ec a0 33 11 3b 2e da d0 f7 c5 b8 19 be 
77 eb a3 44 e3 fe f3 84 62 7f 8e b3 06 7e 66 c5 
c6 24 fd 4c ce 74 9c 87 2d 2b 02 14 ed 52 ad 82 
5e 4b 53 9e 1c 01 c3 c5 03 03 20 44 5f 24 b9 9f 
64 4c 8f c1 81 74 06 45 6b 4d c5 75 06 cf 50 16 
7d a7 5d 91 f7 86 5a 8d c1 76 c2 67 92 65 d2 22 
82 b2 f9 67 b6 50 fc b5 81 68 cc 7e d5 52 25 07 
31 7b ae 47 ea 55 f8 cd aa d7 f3 dc 3e e3 2c c0 
66 b0 7d fb a8 50 5c 6e b9 bb d8 e2 2f b1 ff 34 
5f 87 82 2a 5a f6 25 50 d3 80 0a bf 5c c4 37 7c 
2f 23 fd f9 ba e9 00 2d e4 65 ad 46 96 9b c5 80 
0c 49 f5 5c a5 ed 5b 5a 4f 01 56 da c1 9c 2b 56 
9f 35 b9 c6 5b 13 8d 4f 21 16 15 9f 99 60 4f ea 
61 6f 6a 63 68 71 67 1b 3c 3f be 37 af 8c 44 06 
30 4a 42 6f d1 40 fc 49 45 2e c2 da 2e fb 20 11 
f7 3b d5 c8 16 90 04 f3 b5 d7 49 60 1b c8 b5 c3 
a4 46 94 ae a5 82 9d 46 15 26 44 39 a2 ac 7a 37 
25 18 c3 b6 59 55 2d 94 e5 b7 61 32 60 13 a0 b7 
69 43 e9 75 d5 d2 9e 27 12 b3 84 47 8c 7f 70 ea 
41 d0 fc aa 3c 92 2e 30 27 b1 35 41 14 1e 47 bc 
89 09 79 5e c5 39 96 a9 51 86 83 4b c1 93 5c d9 
97 e5 e3 9b 11 3b 07 2f d3 89 ce 1d 05 2f 6f e0 
bb 9b 1f 5e 6f d1 c4 74 38 f6 07 9b c7 e2 e7 87 
88 b4 9d 48 0c 4f e4 a6 f8 79 f8 ce 05 24 23 9b 
9e 89 4d d8 48 6b b9 9c 31 4d 77 68 27 bd 83 bb 
6f 0e 1a e4 54 c0 4e 7f 07 35 96 16 9b ea c5 03 
98 43 06 1f 6f 40 3a 9d 2b 82 06 d4 26 11 57 c5 
65 70 02 14 bd 44 a4 73 ec 4c 72 95 ab c9 e6 f4 
af f0 35 eb 0e 91 94 6b bf 3f 08 df a5 8e 8d 38 
4c dc 80 26 f0 be ae 29 24 2f 0d 8b 9c 9b 4c 5a 
fc 04 9a 8f 80 64 db 1d 86 84 9d bc e4 b5 bf b6 
aa 95 26 05 b8 66 16 65 1f e6 91 54 f7 65 6a 75 
47 50 22 8a e7 dc ab 31 ea cb a2 c5 ab 0a d4 02 
2a 8c 11 d9 56 11 85 06 be 80 fc e3 62 41 79 ba 
b1 5d ba a2 04 5a 6d 98 10 fa 64 32 86 ec 4c 7f 
c1 fb 88 f0 3b 54 3c f3 1e 50 60 f8 0a b4 55 f2 
a2 b3 f6 b7 71 1f 39 70 75 7f 6e b1 91 fa 9c 09 
e5 13 7f 2b b6 d1 ad b3 0e d2 15 09 e2 2c c6 fd 
06 22 a0 4b f5 1b b1 c4 4c b4 69 9e 84 34 58 91 
86 7d 17 99 87 ec ce 95 d4 95 c8 e7 c6 0e 91 63 
2b f1 26 53 0a 0c 17 90 65 15 57 73 91 97 43 fd 
c0 36 3f 9d bf 24 fb 0e a7 32 19 a0 90 7b 42 ff 
e9 2a 44 27 1d 39 78 eb 7f 4c 9d 73 fc 17 86 ce 
e1 61 7f 0e 0c 10 77 c4 9c 46 eb 3c 67 8c de 9d 
9f ea d7 73 fc 54 1b c5 ce 49 00 f7 69 5e e1 62 
ac 00 89 97 1a e3 11 10 e4 14 e7 8c dd 07 f9 24 
08 87 6e 6c 1d 06 81 bc 2e 4f aa a8 32 de 00 a3 
70 d1 ed b5 3a c3 c4 7c 3f dc 25 c1 14 da 99 f9 
6f f8 a0 44 52 a5 7f 82 df 67 37 24 87 a0 40 e8 
1c 45 8a 74 d8 e8 c2 a5 fa db e7 8b 9c 98 1c 64 
69 a4 79 de b0 2e 71 12 8a 17 9e c0 1b 56 30 bc 
c2 9e 57 cf 16 94 36 43 94 34 0a 80 34 8e 54 9a 
a5 4a f3 82 31 2c 25 30 57 5b d1 e9 7e 0e d7 cb 
d9 e1 2b 15 35 a9 21 ba 96 ce b3 b6 42 ef 29 ba 
a1 8e 79 f7 db bc 72 54 7d 48 51 39 01 8b f4 f4 
13 cb 05 e4 3f fb 9a 16 50 01 01 cb 55 3a 0a 1b 
9b c6 4b fd cb 51 db 18 40 32 53 7b 6c 52 4f a3 
a2 4a 35 e0 54 18 02 fe 58 d1 84 09 b1 15 0a 58 
12 8d 3c 24 5e e3 00 f3 99 e9 8c 98 22 95 00 66 
b8 dd 4a 1d 83 d7 61 45 84 2e 53 ad 30 e2 37 5e 
3b c5 ae 6b 37 5c 88 78 cb 17 80 0d 80 bf 0b ca 
9b 9e 63 68 79 e3 ef ab f4 e1 bf cd 78 4d e3 4e 
ea cf 72 49 1c e2 be 5d ae 8c 6a f8 74 a2 f1 2b 
75 fd bb c3 f9 3b e2 47 4d 88 0e c2 62 37 45 35 
6f 4e 91 58 14 23 21 30 a0 72 d9 75 df 4c dc 0e 
23 d9 16 50 ec fb e4 f2 4a b4 a9 8d 84 0c cd 3e 
eb b1 08 25 4b 2b f2 77 06 bf a4 b4 79 e6 27 95 
0f 17 b2 7d 56 c0 4f bc df 84 e6 1b 22 89 64 49 
75 e5 83 4c 59 ee 29 5b ff f8 da e9 dd 5d 74 7a 
92 42 d0 f0 d2 7e 88 42 d4 2b 78 aa 4a 06 ae b9 
45 9f 73 8c 1d 35 f0 54 b2 b3 25 b4 fe 5f b3 7e 
ef 18 d1 f3 73 d2 82 58 2e 74 b8 f2 53 2f 45 89 
cc b0 b8 1f 95 d9 9c b2 f0 d9 94 31 66 37 ff 1e 
95 32 98 2b 6c 47 62 00 b8 f8 6d 28 a6 92 3e 47 
95 f6 40 0c 9a 0e d2 80 d3 62 9d cc 36 3d 04 c1 
b9 a4 7e a3 00 fc a1 3f 61 b8 3a 4b a8 95 d6 fd 
31 2e b2 6e c9 ed 67 a5 13 17 1c db aa dd e8 52 
08 90 11 97 a1 c2 95 65 30 86 b8 94 e9 6e 17 60 
f5 fa d1 7f d3 2f 77 33 1d ae 98 02 e0 6e af 64 
06 6f 79 66 35 07 9d 31 67 c2 b0 81 bb ee af 84 
48 60 0c 7e e9 55 32 f0 94 bf 5b d5 37 22 19 0f 
d3 45 3d 66 ba 5f 29 f6 c6 83 a0 b1 8e e5 2d 65 
1d 69 4e 95 fd 80 81 29 c5 70 bf d1 a4 92 6f 38 
33 3e 64 44 cd a3 0f 2b 6a d3 d1 17 4e 14 c7 29 
18 39 92 12 f0 51 e1 17 ba f3 1c 72 60 26 45 3e 
4a d8 da e8 a8 24 58 ce 69 ae d8 be 47 91 61 4e 
be 68 97 d6 8b 9b f6 44 e3 f5 ad f4 cb 5f 8b 88 
e2 9d 5b d8 5a c3 b5 02 a3 67 34 a8 70 95 46 b3 
10 f6 71 88 ae cf 58 9e 32 da 42 8c 39 6d bf 68 
fc d4 47 e7 8a 30 a7 5a 70 ce ed c3 8d 22 36 55 
f8 a0 25 9c b7 32 6d ab d8 9f e7 f8 a6 31 cd e5 
0d 68 d5 34 99 df 74 ae 37 cb e1 af 99 07 2d be 
6c 48 f5 03 6e e0 ee f0 79 ff 6f f0 e1 26 91 ed 
9e 09 22 6b 7f 96 d1 f7 a3 63 c9 66 a2 a1 79 b8 
04 b7 e2 d9 af 20 3d ac b3 4b d5 e2 63 b0 82 61 
92 49 09 f1 a1 86 7d db e3 52 40 7c d4 fb 27 06 
10 39 ee e5 75 20 c6 ed 08 cb d9 14 9c 98 a6 b3 
b4 b9 48 ee 6e 3b af 19 b3 d7 b5 65 b6 14 66 1c 
75 17 07 37 86 b9 87 11 ea 3c fd a5 d5 ab 7e 73 
87 5a 19 e0 5f ce 8e 30 2e 4a ca 26 91 e8 54 6d 
76 50 53 15 3c ac 56 9d 3a 88 9c 14 5b 35 0d f6 
be dd e3 68 1b ba 54 06 8e c0 e5 e0 87 31 2f 68 
49 7d 6d d4 f5 7c fc c0 24 cc 5a c7 5b 71 79 3d 
13 aa cb e2 45 25 75 fc e7 9e ec d9 c3 42 dd c5 
e7 47 a4 ca 0f b1 5c c4 45 ea 7a e5 bf f8 b2 82 
8e 36 f1 2c 26 a7 27 5e 9c e6 cd 2b 9c 1f 14 47 
a1 3d 9f a2 2c 80 63 bd ef 69 60 ce 91 5f 69 b0 
0f 68 a8 c9 17 15 06 b7 35 c9 38 6a ec 16 e1 aa 
b6 e2 61 15 e1 3e d4 65 b6 3c 29 e4 fc 2a 0f 1b 
d6 ab f3 df aa 43 71 02 c0 cf e0 ef 3d bf 37 fc 
33 ce c5 ab 4c dc b2 7a c6 54 fe 86 99 6a db 5d 
bd 15 05 d5 c9 75 21 70 d5 92 3c 13 60 7e ef 1f 
8b 92 65 76 73 f4 ff e2 cc e5 84 f2 63 2b 88 a4 
d1 90 7a fc 3b 8a 4f 3f 90 71 f2 54 3b 3e d4 a2 
cc 74 d8 ea 71 3f fd d1 ed ce 7b f4 13 dc 14 00 
1d 41 2a 74 bc aa c8 ad c9 76 5c 55 45 58 1f 1f 
ca 3a c1 da 8d 11 9e d8 c1 cd 1e 2c d8 5e d5 30 
d0 82 f6 e2 8f 64 52 fb c5 2e 4a 66 b2 16 71 c5 
c4 6b ca 5d 39 e2 8d 4c 96 7b 6b 0b 98 31 27 0e 
a6 d8 e6 e3 3a 61 ea a5 94 8b 01 06 a0 aa 73 ac 
08 16 70 b5 c4 1b 2e c3 97 b9 16 1c 9c f7 c8 96 
cf 0f 92 6e 2f 91 e5 68 ba 7c f6 c4 8c 94 8f 90 
b1 a8 3a 49 0d 0a 34 8f 68 28 f7 e2 45 e4 54 a5 
2d 7e dd 62 38 97 69 01 e8 7d 56 0b a7 5a 3f 56 
fa 61 d2 5f 4f 3b 4f 4c 10 92 54 42 99 7c 0d 6b 
17 8d c5 79 5d 37 4b 56 bf c6 5e f8 0e b5 2f 91 
7d 5e 7a aa 40 65 54 ff c1 84 4d 77 32 c3 29 8d 
09 3f 09 87 34 d8 6d 6b 8a f1 df 17 95 25 4b b5 
7d 3f c9 59 73 e7 79 20 ae e1 1d 4f 9e 87 aa c9 
52 03 02 79 32 0a 03 e1 03 77 32 0e d7 4f 13 2a 
84 32 85 2a 4a 15 7c 41 4c 88 ec 0b 72 6d 6d bd 
32 7d 5a 7d a3 bf e3 27 f4 0f 46 c0 47 5c af e3 
dc 8d 10 c7 8b 11 3f 42 2b e3 05 36 3f 1f de 48 
14 5a 28 28 d1 54 e2 4d 5a 29 85 37 d9 fb c4 aa 
29 f6 91 72 b1 c2 c8 d2 c5 62 b8 31 f9 23 4b 31 
e2 37 df f3 25 ab d7 19 42 80 a8 b4 d3 41 4b 19 
e5 d9 f0 1c be 00 ab 72 4c 92 df 5d 53 ab 51 e9 
40 ce d5 36 87 61 fb 5e 89 26 56 11 91 8a cc 1e 
43 4c 2c dd 7c ad c9 3e 1a f8 55 80 62 52 45 b3 
d7 e0 b4 6b f4 26 fb 69 05 e8 25 f8 27 86 21 39 
c3 26 07 0b 36 6a ba 7e e0 e0 85 b5 30 d1 6a ec 
48 cb 4a d0 1b 33 30 99 01 e7 f6 fe 23 77 c4 90 
41 4b ee 44 3c 3e 95 f1 7a b9 05 9a ee 68 d5 8e 
df 0f 43 69 2d 54 ce 55 75 35 15 3f 2f 3a b4 35 
0e 23 64 86 e4 d3 59 78 99 67 0d e6 29 75 b9 3c 
72 7a 08 a0 c3 88 db db 91 50 cf be ad 7d a3 a2 
54 14 62 73 4b e4 ea 17 75 1d 70 fb eb 26 73 a1 
3c db 1b bf 5f cb 56 bb e0 81 55 30 c4 95 f8 3b 
8c 6a 96 cc 7d 2c 2e 88 32 6e 66 91 f3 63 6f 74 
75 80 64 54 6f d9 90 ff 56 be f0 6e fb 09 06 69 
c6 77 ba fb d7 d5 cd b4 2f 44 16 d7 7c e3 7c 35 
f2 47 74 bd 09 d1 7e 5a c3 39 49 93 64 88 5b 62 
d9 e7 a1 b5 f8 6f 4e 3f be 74 c6 06 38 72 cf 09 
06 44 bb 05 74 1e 92 33 1b 13 c0 3c c3 2c 44 8d 
59 a9 81 dd 3f 89 07 45 7f a8 ed 57 46 cf 0b c8 
ff a5 3f 16 78 54 90 1b 63 45 39 6e cf 8c dd a3 
19 61 4d fa c8 73 c2 dd 83 8c e0 1d 49 c6 f1 c1 
35 83 de a1 ea 7a 21 b6 7c c5 ad 94 56 5c 34 bd 
ce 15 af f5 48 fd 21 ee 04 ce b3 5b 13 87 8b 8b 
53 9d ab 47 95 d7 c4 00 75 ae 11 28 e3 b4 c4 95 
6d e1 7e 77 20 7b 56 2b 0d d5 f3 73 87 3c a8 ad 
c6 1c ce 53 74 8b 89 ad af bd 40 ee 13 88 e3 c5 
85 4a 6a d3 6e 42 53 f5 34 21 98 e2 13 e6 4f aa 
48 dc e7 e5 8d e9 11 18 b4 ee d2 f3 7f 22 67 81 
c2 b6 eb 83 0b c9 f0 bb 8b d2 d4 e3 c0 9b 85 e9 
dc 29 2d 17 ad 31 7a 6d 95 b7 fd 13 a3 e1 b2 62 
01 69 d9 9e af 2d bc 12 99 83 79 e5 f6 8b 81 c0 
10 59 ad 6e 76 70 b4 29 9b 1c 14 1d 84 97 2a 88 
03 35 2f 44 3a 99 e9 c9 06 7c 00 98 75 54 e4 e3 
d0 84 b4 b2 c5 28 36 cf d1 78 c6 a6 69 ab 2a a3 
fc fe 22 76 33 58 d9 d7 bd 92 d9 2c e9 29 df 15 
8f 1b 63 59 76 b9 46 92 16 c7 9a 83 8c 9f 68 eb 
83 4a aa bf ff bc c5 7b 1f 19 74 39 79 5a 17 cc 
07 c7 61 f0 15 3f 2a 83 51 bb 9b 0c cf 19 e3 ea 
48 61 ea 7f 0e e6 66 d6 7d 11 87 b7 a8 b5 06 3c 
f4 1e b6 fa cb fc a0 72 2e e5 3d 94 dd b8 f1 54 
5f f1 f7 86 f6 cb 15 df 6a 84 f8 48 2f 27 45 96 
d5 07 87 ed 59 d7 97 22 f7 cb f2 db 1c ba b7 e5 
16 a8 8b b6 5e f3 42 11 61 86 e4 65 c9 d4 5a ef 
62 8f 3b 17 ec 4e 42 4e 03 d3 93 63 fb e4 27 f3 
b5 40 34 05 7c 34 ea fe 28 8d a8 76 57 5a 4a 59 
2c 6e 50 11 a2 13 29 7b be 9a 81 a2 61 56 2c 96 
c7 b0 cf a3 47 a8 e3 8f d5 b5 fd b6 b9 97 7e be 
02 f8 47 9b c6 dd 16 6a d3 ff c7 85 0e a6 35 10 
bb ec 8f 37 de 72 74 6c ec 3e 4f 6e d4 74 62 d7 
08 d4 a5 91 da f6 5d ef e3 b3 13 b8 e5 37 43 c2 
31 0b 2d 2a b8 8c 8a 42 36 34 ec c2 46 47 f8 08 
4d 75 33 69 15 b7 22 5e 32 ac 56 96 65 ff 0e 84 
5a 09 20 2d a0 53 df 78 a6 80 39 4b e7 fc 90 0e 
fa 53 a9 dc 29 f9 6a 75 e9 51 fa aa c1 9d 83 c1 
a6 7e 5f 73 0e 06 ca 4e be 7f 7c c0 40 fd 0a 32 
94 b8 00 51 c7 76 20 7e 8a b9 cd aa 95 c5 59 c4 
e2 73 be 64 78 ee a8 93 44 c8 2d f5 3c d3 3b 69 
d3 e6 c0 0e 87 83 cd b0 13 d2 62 e8 05 44 9c 5f 
5e ae b0 71 17 66 3b f8 16 28 99 a5 28 0d 18 40 
62 bd a9 8a db 89 f7 ff 2c 41 ff c9 f6 18 34 87 
84 03 8a 66 c2 72 13 36 fa 97 4a 6b 3b 8a f7 8d 
3d 3d 21 c2 34 42 5f d0 4c d4 22 da 00 f1 e2 29 
9e 66 56 1e 11 38 20 a1 f5 20 35 c8 5f 96 ac 74 
ba 6f ae 97 4b 7e fe 85 35 7c 09 43 9f 98 a5 0a 
28 35 18 26 17 5c f7 95 98 c6 d7 f0 ca 83 f4 53 
3f 42 01 57 ef f7 c1 79 ab 2d cb 05 dc ea 1f e9 
9e 88 e9 6f 2f 82 90 af a4 61 7b b2 88 3d 5e 52 
c1 22 be 5e 23 b7 2e 2c 02 a1 5e 78 5f f4 26 4b 
04 94 ad 35 60 95 d1 34 aa 1a a0 ce 7e 3e 3f 65 
24 59 5f 1a 4d 54 33 a5 c8 e1 bb 21 f8 f8 29 2d 
63 c5 62 cd ef 1f dd 1b 04 94 e9 04 0b 2f 84 c1 
2d 65 e1 86 a1 8b f8 f0 d6 10 c3 04 1c a8 0f cb 
18 e2 6d dd ab 1f 40 9d 35 78 13 af 8c 57 98 24 
8f 07 64 3d 8f a6 1f b3 b8 d6 42 1e af 9e 44 57 
3b 3b af de b0 ed 38 b8 58 ef 8c 54 dd 5a cc ef 
57 3c 5f 51 7e 49 43 fb 34 55 4d b8 d2 6d c8 e7 
e2 b2 f3 42 ec f9 ac 79 e2 c8 f7 71 01 06 0e 1a 
a6 94 4a a4 26 78 92 fc f4 eb fb bb fc dc 0a c5 
fa bc 6a a1 78 dc e6 f3 20 58 af 4d b1 db f4 bf 
66 d2 a7 7a 3f 3c 37 60 09 01 13 39 1a 96 2d 00 
e0 40 da 0a 27 99 d4 01 ca 44 d7 2d 3b a4 a0 79 
7c 4b f7 be 26 20 01 3f f4 51 18 e5 bd a1 0e b7 
d0 38 b6 77 eb be c8 bd 0b 17 8e 9a f6 19 0a 7e 
d5 6f 2c 5e 01 25 d4 30 2c 12 39 7c 23 60 93 da 
de 84 19 72 6f 80 c2 51 0f 04 46 30 46 0e 16 33 
25 3a 41 43 f2 5c c3 c7 12 d4 54 5d 10 a7 87 77 
20 29 72 4c 0b 2a 32 2e 67 17 60 90 a0 3c b9 42 
63 30 a7 11 e2 f0 48 08 09 ce ca a1 7c ac 10 38 
8f 92 27 d9 4e 81 b9 fa f1 cf 1e 71 75 10 74 df 
2b 99 82 72 41 c8 dc 05 f6 8f 72 55 f8 9c df 29 
28 6e b4 ee b5 f1 b8 20 fe 17 0a d0 db 69 f4 8e 
1f 6e b8 86 a5 4f e7 63 4f 94 16 78 51 02 5f f4 
5f c4 f9 e0 9a 81 8d 90 87 1d 26 88 92 b3 d3 c8 
d8 cf f1 bc 6b b7 f4 b1 49 23 da cb 29 80 fb 7a 
1e 28 24 df 74 85 cb cd d8 7f 6a 95 a8 bf b0 b0 
33 af 14 b1 0d 5e 8b 1b 84 41 c2 27 65 69 ec 38 
f8 0f dd 1a 6c be 16 2e a9 35 59 d6 16 74 da 31 
d3 57 33 bd 42 c7 67 eb 17 35 26 1a f6 91 93 f1 
b0 f2 ad 3a 3b b4 3a 81 b4 0d a9 2c e5 bc 1a 17 
77 13 11 15 25 c0 4f 0e a4 ad cd f7 08 b2 7b 6e 
b7 f6 7b 3f 6b 92 b7 50 dd 14 eb 3d de 10 39 eb 
a0 b5 29 6a 61 75 5e 0d f0 85 34 2e a5 43 4b 79 
a3 b1 10 08 1c 6a 37 7d 72 3f 40 40 fe 19 46 4a 
d1 f2 6c b5 bc 15 9d d0 65 aa b4 8b 0d 39 4e 36 
60 1b a6 fa d0 38 a0 87 d2 79 d9 3a 9d 45 da 85 
39 c2 9b 23 bc 01 22 96 0c 5e eb 9a 34 5a 1d 4a 
e4 88 4f 9c 59 6c 1d 39 35 37 46 e6 4e 1e a7 26 
80 cd 7a fd 54 0c f8 ac 10 2e 93 7c 73 e7 8d 56 
3c 6b 28 e9 72 66 13 26 b5 09 50 e9 08 ca 61 aa 
9c 91 cf ab 36 d8 11 5a 36 77 5a ba 1e 36 61 65 
a3 71 77 87 83 11 f6 20 3a 41 16 35 02 1d 5b c8 
4c 55 84 ae 35 36 db e7 62 69 28 0e e8 27 e1 33 
ed 9e e0 a7 1e 03 10 fb 74 b6 28 c5 f0 23 f5 bb 
a1 d6 07 58 0d 80 91 bf af a5 94 93 29 cb 2a 46 
17 4c 04 44 f7 e1 2f 5c cc af 5b 30 74 e2 66 54 
ce 40 55 05 b6 94 e0 32 60 5f 71 06 e7 4e 04 36 
08 57 3c 80 da 50 da b5 e3 d5 4f 79 5b ca 5b c4 
b6 eb 7d 97 a9 78 3e 02 0c 45 70 9d d5 b7 b1 57 
bd d1 a2 4f a3 86 47 80 01 4e 6b 07 36 95 3b da 
31 b2 cc 22 77 8e 17 ba 49 ca 38 b7 fe 2b 71 ff 
34 0f e4 b4 01 7f ca b8 b6 59 9d 5f 05 20 a1 ab 
e4 fb 28 03 3f b5 40 33 cc 1a 54 7d a2 91 3a e2 
4e 8a 5e de 13 b8 31 c6 7a 0b 63 ad ed 2e c8 00 
f8 73 23 d2 ef e7 5e 15 ae 24 ed be 58 6d db 4a 
a7 0a fd 86 e0 16 a9 7e bf 3e 51 78 e2 f6 dd a1 
23 19 ee f5 84 fa ff 39 20 ef ee 43 fd ed 32 5f 
8f a0 5a 13 4e 7a f2 db 50 3e a1 c3 7d d9 18 1d 
ce f9 0a 0a f3 dd ba 48 8c eb 58 59 90 77 df f6 
58 65 69 a1 ea 2e 3b ab 6d 8b c5 6d 69 12 bf 36 
42 0e 19 d2 ed d1 0d bb 94 f4 3c 75 e7 3d 94 b4 
d0 33 a9 c7 1b 78 39 52 20 1f 6f 02 8e da 51 89 
71 f8 05 8d 65 2e 1a 55 95 8b b4 60 42 a2 44 5f 
9f 44 6b 17 a9 90 a9 5c 36 23 a4 bb cb 44 56 b9 
3b 4b 3c 14 49 2d 39 e7 b0 62 6d b9 5d e4 11 71 
68 99 33 de cd f6 a7 6f fa 50 98 65 53 bf a3 35 
05 db f0 85 55 c0 3e c1 d5 65 a9 cb bc 61 c5 c2 
1c 09 63 2a 7a f4 41 87 84 7a 27 df 1d 24 26 d0 
8a 60 31 4e b7 35 93 40 ee 09 ef f5 f4 89 ae c9 
72 94 34 65 7f a0 3d f3 dd f9 c0 e0 ec 6e 22 e4 
c5 e4 26 f0 c7 d3 2e d4 41 8b 01 51 ad fe e4 d8 
88 89 91 a8 33 32 6b ab 84 1b 84 dd c7 0b f7 3e 
10 35 18 f0 d4 70 4b a0 a6 6f 5b ca 01 82 9f db 
33 f6 e8 5e db dd b2 a3 19 65 42 7d ff 98 11 3c 
04 c1 67 b2 bb 25 27 36 5a 66 bd cd 9b b8 3e 78 
35 1d 3c d9 a5 ea 1b 17 84 f1 fb 5e d1 3a 03 08 
75 05 11 56 f7 61 15 88 96 4f 89 1a 22 60 57 15 
70 58 a1 8d 22 cb ae c3 60 20 bf 43 01 a3 b1 99 
28 4d 3d ca 50 16 b7 cf 19 56 9f 8d f5 61 33 28 
db 21 5f ff 89 ae 13 6e 4f e9 3a 56 b8 81 1a bb 
94 98 24 a2 30 bc 2f d5 fe eb 1d 9b bd 01 35 3c 
47 3a f8 fd 89 93 85 d3 51 3d 85 9b 3c 99 ed 1b 
14 f0 04 6c 38 34 7e bf 98 65 5f 9e 0c e0 6f 30 
cb 37 e0 38 4e c0 7f cf ba 8b 64 bd a2 69 88 b3 
36 36 bb 21 8a 7a a3 44 2b bd 6d 16 23 68 f4 e8 
a7 c4 8f ba b2 47 18 83 9b 4f 13 0d 70 d6 ab 4d 
3c 02 d0 f8 a5 9e 3c 18 cc fd 5e 18 36 2f 9d 21 
cb 79 fb 11 27 bd c1 c0 46 f5 4f 98 82 95 3c e4 
5a b0 e1 66 ef fd 6b 9e f5 39 2d 56 c3 c7 2b db 
94 9a 77 5b 5c 5e 67 ab 19 4d c3 ba c4 2b c1 7c 
94 ae 00 76 ea a0 12 ef 2d 90 e6 9c 54 13 55 d7 
c5 ce 46 f6 4d ff d2 79 41 3c d1 7e 97 ff 9a d5 
c8 e0 de 88 a6 93 52 55 0e 21 2d f6 ee bf 7a 47 
29 77 86 86 48 75 ad 4c bc 01 86 c8 27 0f 19 7d 
81 5b e4 30 65 49 9c fe 2d f6 d2 75 0b 18 f0 b7 
3a b7 40 85 04 07 8d 53 a8 2b a1 10 38 89 86 00 
3e 10 24 c9 5e 08 35 21 b2 3b d4 51 47 a5 38 a5 
24 8c 6f 26 cf 6e a1 82 f0 74 6d 4a 9b 4c 9f ea 
c1 68 b6 0b e0 8e e3 32 44 a5 87 97 af ff 0a be 
e7 01 54 9a e9 f8 a9 1e ee 19 f0 70 ac 10 96 1c 
13 96 05 b6 1a ad de d7 28 53 6f a8 39 84 98 fc 
44 5b c3 a8 df 41 ee 05 2a 66 8d ca cb 20 e1 b3 
2d 7e c0 3b bb 56 c4 4e c9 11 2b 21 d7 0f 12 18 
01 d0 21 7b 0a 5c 26 0d e3 6a 1b 04 c2 c6 0f 25 
2a 6d c6 83 c4 a7 42 1c b2 d2 0a 06 cb c2 f4 60 
0f 07 fc db 8d fa b2 a6 ed 2d 23 64 3e 71 d3 f4 
86 3e 42 d5 77 f5 91 64 2d 8f b0 1a cd 83 2b 1d 
a3 e1 31 1c 39 2c d7 52 23 3f bb d0 cf e9 70 56 
d0 ed e2 7e 15 8f da 5d b5 35 a0 92 97 de 09 e7 
bd 71 d8 64 01 ec 55 73 1c 46 3f 77 89 ad aa 08 
1a 9a b5 c6 0d fe 85 44 af fe 21 22 d6 a5 4d 95 
05 67 bb 95 07 fb ca b1 1b de 7a ad 66 56 39 0e 
e9 33 06 f6 46 61 46 49 2f eb 9a c4 1e 03 13 d8 
a3 2a de 9d 27 6b 3f 6d 51 25 d5 fa 1b 00 f1 c5 
af 01 9c 0d 7c 22 34 5e f7 7d 64 8c 4e 4a a0 98 
af 52 ee e6 e8 f9 7f 31 11 6a 54 92 02 4e 7a fa 
32 fd 09 c1 e1 71 33 2c d0 b6 01 c8 05 93 19 06 
ab da 39 bb ed 40 44 db 27 1c 3c 64 7a 16 db 46 
17 f8 38 77 24 d0 a9 74 e5 35 ee b2 37 1e e7 cd 
6a 67 ae 41 10 7a ad aa 87 03 b1 23 8c c0 03 b6 
df 60 62 d5 55 28 a6 bc a7 49 70 b3 20 b1 02 80 
b3 36 5b 16 d4 e9 84 4b 61 4c 31 27 d4 07 5b 9d 
92 ef d8 57 73 85 70 81 85 13 77 89 fd 9b 4f 54 
e3 da 3e e5 2e a2 b0 ad 7c 86 14 59 1f c7 7b 56 
0b 07 db cd 0a 9b d1 60 a2 2f b8 58 e7 d1 75 61 
23 5b ef 2d 25 c1 ea 90 6d 39 18 3f f1 32 24 16 
e7 d8 8c ab 2f c2 fd 3c d8 c9 45 63 7c ef 66 2a 
54 9b 86 f6 00 cb c1 10 6a 7d 07 83 29 50 36 da 
3a 27 e6 98 f3 62 01 1f b5 45 4d 42 d4 01 d1 a7 
e5 4f 7a bc e9 77 27 bd 9c 56 5b 71 ec 63 3f b9 
d8 b6 f2 ab 08 42 76 87 dc 92 0c d6 9e 46 4a d3 
f5 1e 1b 80 6e 77 cf 55 85 3a 00 cb 07 61 1e 7a 
9a 88 1f 9c 6d fe 88 08 3c 74 68 8d 4a 03 57 cc 
51 e3 aa e9 3f 23 f6 32 cc 1f 03 8d 88 84 53 9e 
32 c2 fd b5 f3 a2 e5 0c 39 a6 19 41 af a4 6e 33 
4f e5 7d 53 49 21 fd 2a cf 81 be b6 96 16 64 f9 
b8 4e 26 d3 45 f3 c0 df dc 57 8c 0d f6 7f 3c f4 
7e df 7d 01 57 4e fb e6 c8 34 9b 0a bf 2c 48 d6 
48 74 7d 6a bb 0f 7a ad 13 09 4b 7b 55 ca 54 dd 
20 7d b2 35 2a fd a6 32 5d ee b8 ea 9d 57 be 51 
e4 56 4e 85 13 08 00 42 d7 5a e4 8f cf 40 1a f1 
11 b1 e4 31 5b c7 78 43 89 80 5f 86 ec 40 f3 97 
ef 94 2b 83 ea ac ff 78 9a 49 88 07 81 6c ba 40 
50 1e 82 31 de d3 2e 56 1a a6 4b d7 d0 95 c7 37 
ac f9 1b 9f 69 7a 23 ce b2 90 97 97 0e bc ce fa 
ae 8d 69 ac 69 05 85 f7 1b b1 7d 71 3d c2 a4 84 
d2 5c 71 cf 04 91 f7 e4 b1 4d 45 aa 24 40 e9 82 
e5 15 08 b1 15 b8 1a 09 99 36 41 35 3f 9a a5 f8 
7f be 1f 1d c5 58 8f bd 4d 63 7c ed a3 b5 7d d6 
f9 4b 95 2f fc 38 37 8a 55 d2 44 af f2 40 f3 19 
ba d1 c7 92 11 a8 60 ef af b5 38 c9 ee 00 e6 85 
9f 92 ed be b6 5b 60 9f b6 52 4b b7 4e 86 ff d6 
ca ab 7a 58 97 4f 74 19 be d4 7f 54 dc a4 46 77 
85 ea 77 af a9 e6 f4 f7 5a 03 e2 71 4a 03 d3 9f 
ef 11 f5 a8 fb 81 7b 35 0f 45 77 af 68 fd 14 e6 
08 15 f8 73 1f 7e 4e 33 b6 f1 9b 55 4c c6 e0 31 
25 2e 01 82 c2 78 f1 1c f8 13 34 c7 b6 37 0d 9c 
2e 01 76 bd 83 fe b6 45 d7 11 e1 17 24 bd 54 31 
41 d7 21 aa 8b ca eb 14 57 ab 54 64 1a b5 e8 69 
ea 65 68 b8 ac 98 4f 6c ea dd 7e 5b c6 e7 7a 64 
59 49 61 04 7c b7 f1 a7 08 7d 7e 93 18 cd a0 07 
21 0b 97 73 b2 dd e8 06 cc 2e f4 3a 9a 14 ee 0c 
a0 9c 80 51 b9 7a 2d ca 7f 41 75 5d 35 fc 9a ef 
a6 89 23 49 02 82 b3 49 51 43 34 4e 0c 8b e0 7e 
c3 5d 66 0b 3e 2f 2b c6 2b a4 e2 c4 88 8d d5 16 
1a b0 36 78 06 ff 5c 28 df 52 84 74 ac 62 41 8b 
9c 9e 8a f0 a8 1e 68 58 e9 94 bf ae 69 5f 0b 0f 
3a ae d5 43 b0 01 4a 16 2a fb a2 a7 e9 b6 e6 c9 
3b 68 27 e1 67 91 93 c4 7c 01 85 b2 9c 10 f3 b1 
c4 9c 87 59 c8 54 f8 33 fc 5c 69 cd 65 cc 8f 77 
c4 f7 67 c3 99 9e 1d 53 b8 8f 32 74 51 61 10 c0 
18 a6 4c 85 af 60 5c fc 74 0f 24 90 7c e0 0b 5d 
30 15 4c 9b e4 d0 36 e9 1c c1 78 20 0e 22 ff cb 
9c b2 bb ef 66 c2 32 68 2c 22 e5 60 0b a7 62 f9 
f6 cf b7 4c ed 48 e0 2e 50 8d 93 02 f7 a4 5a a0 
24 f6 42 ea 2f 43 fa b5 6c 3c 5b ec 9e 4f dc cc 
56 a2 da 2c 0d af 98 2c 54 c3 37 74 b9 82 b7 80 
de 09 af 24 0b 71 1b 64 f0 ca 45 b0 64 b6 78 49 
27 14 79 f9 9c a9 7b 0b ce 1f 55 d5 41 ad 35 ab 
4d 79 cf 37 83 73 1a 69 a8 83 72 f3 c1 4e 72 b1 
8a 5d 5c c4 a7 aa 62 6b 2c 0a ff 6d 48 36 bd 38 
ce 6a 36 fc 79 0e 25 d6 31 6c 52 53 c0 1a 0f b7 
e7 09 fa e4 4c 83 92 0d d5 26 8a 7c b7 bd 90 f6 
2a db e3 8a 62 73 45 57 e1 bd 88 ee 55 12 21 62 
13 58 f3 36 65 e4 75 70 ef ee c5 b8 59 82 ca 82 
2f 2a 36 34 42 93 6c f0 ff 7a 5f f0 53 36 b5 ec 
7b a6 d0 2a ce b5 17 4d 80 1c 06 09 6f d0 2f 2f 
1f b4 87 38 61 7e c0 e4 4b 87 1e 05 3d 4d 17 32 
f1 b3 16 89 60 f0 aa fd c5 a8 2a 6c 73 f6 e8 11 
b3 5e 7c 70 e7 bf 58 10 36 1c 55 ba d7 ce 73 f0 
1a 1f 6b a6 a6 98 0b d2 3d 0b 2e 48 64 67 ff 38 
f8 fb bc cb 2c 0d df ef e3 29 74 2e 71 20 bb 8c 
20 ae 6b 58 b3 18 56 0d c9 48 d0 84 cb 33 85 e0 
1a 9d 0e a7 84 62 8a 13 07 84 5d d5 0e 4c c8 05 
6c 71 e2 39 5e 75 e7 05 e9 fe 8b 04 52 a9 b9 3a 
4b d1 de ae 5d e3 2c 1a 28 a0 ff 67 23 af f0 8f 
58 3c 86 54 db 4e 87 a9 5a ec 06 cd 87 b5 81 64 
c1 90 57 3d 98 57 90 cc ea 79 70 41 d9 6c f3 82 
5d 38 07 a1 fe 1a 44 a9 3f 25 3c fe dc 00 b0 a3 
f8 aa 56 69 21 47 78 79 2e 8e f1 66 5f 9c ce 21 
02 ef f4 68 56 7f 6b fa 4d de 3c 3a 73 9c 4d ea 
c1 66 b3 5c 9e 7a ba 84 ca ff 4e 77 f5 bf 8c 24 
c6 7c 30 a5 44 41 f7 7b b0 49 8e a7 ea 7b 68 21 
59 1a 01 ad ef 5f 6c e2 77 cb ef 3f b7 08 68 0b 
8d 7e 6f bc 33 c6 43 0e 7e 04 01 26 99 bd 2d 6b 
0f a6 f4 c8 d5 8d bb 80 df 92 9e c6 95 ac b3 11 
62 0c 53 ae 3b ee 0e b7 cd 5c 7d bf 24 5f e4 32 
9c 0b dc 83 0e 96 85 12 bf 50 95 32 13 2d 7e c2 
5b b3 05 c7 03 34 af be 08 3d d0 73 91 6c 8f df 
b3 5d 02 ee a5 03 87 f5 e9 d3 0a 0d 64 42 40 81 
be 34 79 78 ea 8a cd 8e 11 51 08 5f f0 19 d4 cf 
bc 75 ba 4f 51 23 81 e5 d8 b5 ef 11 37 ea f4 ea 
09 5b 4d e9 12 3a 04 e3 f9 de d0 15 3b 1a 58 02 
b1 01 21 9b 96 a3 ca 86 d8 60 7e 32 ba 1a 46 eb 
55 a9 70 2d c2 b8 27 5c f3 79 7c fc 82 fa eb 7a 
dd 63 79 cd fa da 6e 3e 3f cc 27 88 f1 2b bf b3 
aa 4a 51 20 62 30 bd 76 e0 d3 e9 26 60 f3 9c ec 
a2 5a 6f 24 a2 64 36 71 32 15 ce 5d 58 55 bc 90 
5c e2 5a 5f d0 8b 69 a6 ba 93 39 e9 c0 ed cd bf 
77 58 25 3b 5b 0a d1 0d 40 4f e9 d2 ba e9 c4 da 
1a 39 18 7f 0b b2 43 4c 37 60 20 77 48 ef 2f 5b 
ca 27 fe 6e 3b f7 38 36 8c 90 7b c6 d0 33 9b bb 
6b 71 3a b4 29 2d 9d f1 a3 f5 fd a6 ea 47 6a ab 
e1 f1 29 f8 17 4b 81 61 49 94 f6 01 86 30 e8 68 
85 7b c3 07 1d 05 5e 3d 59 ad 28 dc 1f f8 2e bc 
09 87 86 f7 7d af 93 6d a2 15 06 29 42 b6 75 58 
89 9b 01 a9 66 77 f5 0d 55 6f fd 87 49 8a cc a8 
80 8d 96 d7 32 09 9c 52 67 7f 3c 9a 13 78 38 bd 
cf 8b a5 6b 53 25 ed 32 11 19 df fc af 86 03 9a 
9e 61 f7 07 d5 ec 8e d9 e1 9e e7 ea 38 ed 54 51 
a6 df 02 27 a5 80 ee 44 7d 68 b1 f7 eb 45 80 d1 
ea 4b 3b b2 b4 2e 21 21 37 51 02 d0 50 1e 2e c1 
cc a9 b5 df 64 b7 16 7b f7 38 50 1a f0 3c b5 98 
f3 3b 8e 2e 70 d9 8e b4 4e 9d 7a 22 45 96 d9 7e 
6d 20 94 01 ba c7 6d 02 a8 52 43 d0 38 88 17 28 
6b 50 2f f0 19 28 a5 48 22 e5 fc dc 0a cd fa 52 
37 87 62 70 ce b5 90 99 b4 fb f3 f3 7a 09 10 0d 
b1 95 9e ce 04 6f 5a ce 81 18 37 04 e9 8e ca 3e 
b4 81 58 00 b3 21 b6 89 c7 89 49 92 b8 96 fb ff 
e3 0a 51 af 60 33 d8 de d2 a6 cf b7 ae 3f e5 46 
81 39 0c f6 d8 65 ed b8 a6 c2 0d d4 2a f2 df 01 
85 d2 87 b7 b2 a7 c6 08 90 e3 be d8 91 24 b0 e4 
48 42 6a e2 1c ce 79 55 a6 b9 23 fb bf 54 c0 25 
86 85 57 46 f9 c2 4b ba 13 2d d2 5b 02 0a 26 36 
19 fc 1f d7 61 10 3f 26 7b 63 03 c6 22 0a 70 c1 
5a 5b 64 cd b1 cc 53 a5 58 cf 59 6f 63 06 44 26 
9c 2e bd c1 b8 da b3 2a 65 a7 c6 83 74 53 e7 7b 
f7 94 c8 22 38 dd 08 f1 f9 46 29 06 8d 54 5f 74 

